{
  "profiles": {
    "NeverfallRoleplay": {
      "commandName": "Executable",
      "executablePath": "E:\\Project\\Neverfall RageMP\\server-files\\server.exe",
      "workingDirectory": "E:\\Project\\Neverfall RageMP\\server-files"
    }
  }
}